<mxfile host="app.diagrams.net" modified="2024-02-23T09:30:54.691Z" agent="Mozilla/5.0 (Windows NT 10.0; Win64; x64) AppleWebKit/537.36 (KHTML, like Gecko) Chrome/121.0.0.0 Safari/537.36 Edg/121.0.0.0" etag="xYHpPaDNxmLs6So-TU2R" version="23.1.5" type="device" pages="2">
  <diagram name="Fonctionnement" id="2YBvvXClWsGukQMizWep">
    <mxGraphModel dx="1386" dy="759" grid="1" gridSize="10" guides="1" tooltips="1" connect="1" arrows="1" fold="1" page="1" pageScale="1" pageWidth="850" pageHeight="1100" math="0" shadow="0">
      <root>
        <mxCell id="0" />
        <mxCell id="1" parent="0" />
        <mxCell id="aM9ryv3xv72pqoxQDRHE-1" value="Client" style="shape=umlLifeline;perimeter=lifelinePerimeter;whiteSpace=wrap;html=1;container=0;dropTarget=0;collapsible=0;recursiveResize=0;outlineConnect=0;portConstraint=eastwest;newEdgeStyle={&quot;edgeStyle&quot;:&quot;elbowEdgeStyle&quot;,&quot;elbow&quot;:&quot;vertical&quot;,&quot;curved&quot;:0,&quot;rounded&quot;:0};" parent="1" vertex="1">
          <mxGeometry x="40" y="40" width="100" height="360" as="geometry" />
        </mxCell>
        <mxCell id="aM9ryv3xv72pqoxQDRHE-2" value="" style="html=1;points=[];perimeter=orthogonalPerimeter;outlineConnect=0;targetShapes=umlLifeline;portConstraint=eastwest;newEdgeStyle={&quot;edgeStyle&quot;:&quot;elbowEdgeStyle&quot;,&quot;elbow&quot;:&quot;vertical&quot;,&quot;curved&quot;:0,&quot;rounded&quot;:0};" parent="aM9ryv3xv72pqoxQDRHE-1" vertex="1">
          <mxGeometry x="45" y="70" width="10" height="250" as="geometry" />
        </mxCell>
        <mxCell id="aM9ryv3xv72pqoxQDRHE-3" value="/endpoint" style="html=1;verticalAlign=bottom;startArrow=oval;endArrow=block;startSize=8;edgeStyle=elbowEdgeStyle;elbow=vertical;curved=0;rounded=0;" parent="aM9ryv3xv72pqoxQDRHE-1" target="aM9ryv3xv72pqoxQDRHE-2" edge="1">
          <mxGeometry relative="1" as="geometry">
            <mxPoint x="-15" y="70" as="sourcePoint" />
          </mxGeometry>
        </mxCell>
        <mxCell id="aM9ryv3xv72pqoxQDRHE-5" value="ApiGateway" style="shape=umlLifeline;perimeter=lifelinePerimeter;whiteSpace=wrap;html=1;container=0;dropTarget=0;collapsible=0;recursiveResize=0;outlineConnect=0;portConstraint=eastwest;newEdgeStyle={&quot;edgeStyle&quot;:&quot;elbowEdgeStyle&quot;,&quot;elbow&quot;:&quot;vertical&quot;,&quot;curved&quot;:0,&quot;rounded&quot;:0};" parent="1" vertex="1">
          <mxGeometry x="220" y="40" width="100" height="360" as="geometry" />
        </mxCell>
        <mxCell id="aM9ryv3xv72pqoxQDRHE-6" value="" style="html=1;points=[];perimeter=orthogonalPerimeter;outlineConnect=0;targetShapes=umlLifeline;portConstraint=eastwest;newEdgeStyle={&quot;edgeStyle&quot;:&quot;elbowEdgeStyle&quot;,&quot;elbow&quot;:&quot;vertical&quot;,&quot;curved&quot;:0,&quot;rounded&quot;:0};" parent="aM9ryv3xv72pqoxQDRHE-5" vertex="1">
          <mxGeometry x="45" y="80" width="10" height="150" as="geometry" />
        </mxCell>
        <mxCell id="YP0zm3YjQFAhnFAVguXp-6" value="" style="html=1;points=[];perimeter=orthogonalPerimeter;outlineConnect=0;targetShapes=umlLifeline;portConstraint=eastwest;newEdgeStyle={&quot;edgeStyle&quot;:&quot;elbowEdgeStyle&quot;,&quot;elbow&quot;:&quot;vertical&quot;,&quot;curved&quot;:0,&quot;rounded&quot;:0};strokeColor=#2189FF;" parent="aM9ryv3xv72pqoxQDRHE-5" vertex="1">
          <mxGeometry x="50" y="90" width="10" height="30" as="geometry" />
        </mxCell>
        <mxCell id="YP0zm3YjQFAhnFAVguXp-7" value="" style="endArrow=classic;html=1;rounded=0;strokeColor=#2189FF;" parent="aM9ryv3xv72pqoxQDRHE-5" target="YP0zm3YjQFAhnFAVguXp-6" edge="1">
          <mxGeometry width="50" height="50" relative="1" as="geometry">
            <mxPoint x="55" y="85" as="sourcePoint" />
            <mxPoint x="60" y="115" as="targetPoint" />
            <Array as="points">
              <mxPoint x="80" y="85" />
              <mxPoint x="80" y="105" />
            </Array>
          </mxGeometry>
        </mxCell>
        <mxCell id="YP0zm3YjQFAhnFAVguXp-9" value="Request&lt;br&gt;modification" style="edgeLabel;html=1;align=center;verticalAlign=middle;resizable=0;points=[];strokeColor=#2189FF;fillColor=#2189FF;" parent="YP0zm3YjQFAhnFAVguXp-7" vertex="1" connectable="0">
          <mxGeometry x="-0.1385" relative="1" as="geometry">
            <mxPoint x="33" y="7" as="offset" />
          </mxGeometry>
        </mxCell>
        <mxCell id="YP0zm3YjQFAhnFAVguXp-13" value="" style="html=1;points=[];perimeter=orthogonalPerimeter;outlineConnect=0;targetShapes=umlLifeline;portConstraint=eastwest;newEdgeStyle={&quot;edgeStyle&quot;:&quot;elbowEdgeStyle&quot;,&quot;elbow&quot;:&quot;vertical&quot;,&quot;curved&quot;:0,&quot;rounded&quot;:0};strokeColor=#2189FF;" parent="aM9ryv3xv72pqoxQDRHE-5" vertex="1">
          <mxGeometry x="50" y="194" width="10" height="30" as="geometry" />
        </mxCell>
        <mxCell id="YP0zm3YjQFAhnFAVguXp-14" value="" style="endArrow=classic;html=1;rounded=0;strokeColor=#2189FF;" parent="aM9ryv3xv72pqoxQDRHE-5" edge="1">
          <mxGeometry width="50" height="50" relative="1" as="geometry">
            <mxPoint x="55" y="187" as="sourcePoint" />
            <mxPoint x="60" y="207" as="targetPoint" />
            <Array as="points">
              <mxPoint x="81" y="187" />
              <mxPoint x="81" y="207" />
            </Array>
          </mxGeometry>
        </mxCell>
        <mxCell id="YP0zm3YjQFAhnFAVguXp-15" value="Response&lt;br&gt;modification" style="edgeLabel;html=1;align=center;verticalAlign=middle;resizable=0;points=[];strokeColor=#2189FF;fillColor=#2189FF;" parent="YP0zm3YjQFAhnFAVguXp-14" vertex="1" connectable="0">
          <mxGeometry x="-0.1385" relative="1" as="geometry">
            <mxPoint x="33" y="7" as="offset" />
          </mxGeometry>
        </mxCell>
        <mxCell id="aM9ryv3xv72pqoxQDRHE-7" value="request" style="html=1;verticalAlign=bottom;endArrow=block;edgeStyle=elbowEdgeStyle;elbow=vertical;curved=0;rounded=0;" parent="1" source="aM9ryv3xv72pqoxQDRHE-2" target="aM9ryv3xv72pqoxQDRHE-6" edge="1">
          <mxGeometry x="0.0017" relative="1" as="geometry">
            <mxPoint x="195" y="130" as="sourcePoint" />
            <Array as="points">
              <mxPoint x="180" y="120" />
            </Array>
            <mxPoint as="offset" />
          </mxGeometry>
        </mxCell>
        <mxCell id="YP0zm3YjQFAhnFAVguXp-1" value="Private api" style="shape=umlLifeline;perimeter=lifelinePerimeter;whiteSpace=wrap;html=1;container=0;dropTarget=0;collapsible=0;recursiveResize=0;outlineConnect=0;portConstraint=eastwest;newEdgeStyle={&quot;edgeStyle&quot;:&quot;elbowEdgeStyle&quot;,&quot;elbow&quot;:&quot;vertical&quot;,&quot;curved&quot;:0,&quot;rounded&quot;:0};" parent="1" vertex="1">
          <mxGeometry x="400" y="40" width="100" height="360" as="geometry" />
        </mxCell>
        <mxCell id="YP0zm3YjQFAhnFAVguXp-2" value="" style="html=1;points=[];perimeter=orthogonalPerimeter;outlineConnect=0;targetShapes=umlLifeline;portConstraint=eastwest;newEdgeStyle={&quot;edgeStyle&quot;:&quot;elbowEdgeStyle&quot;,&quot;elbow&quot;:&quot;vertical&quot;,&quot;curved&quot;:0,&quot;rounded&quot;:0};" parent="YP0zm3YjQFAhnFAVguXp-1" vertex="1">
          <mxGeometry x="45" y="137" width="10" height="20" as="geometry" />
        </mxCell>
        <mxCell id="YP0zm3YjQFAhnFAVguXp-4" value="&lt;br&gt;request" style="html=1;verticalAlign=bottom;endArrow=block;edgeStyle=elbowEdgeStyle;elbow=vertical;curved=0;rounded=0;" parent="1" edge="1">
          <mxGeometry relative="1" as="geometry">
            <mxPoint x="275" y="177" as="sourcePoint" />
            <Array as="points">
              <mxPoint x="365" y="177" />
            </Array>
            <mxPoint x="445" y="177" as="targetPoint" />
          </mxGeometry>
        </mxCell>
        <mxCell id="YP0zm3YjQFAhnFAVguXp-11" value="" style="endArrow=classic;html=1;rounded=0;" parent="1" edge="1">
          <mxGeometry width="50" height="50" relative="1" as="geometry">
            <mxPoint x="445" y="197" as="sourcePoint" />
            <mxPoint x="275" y="197" as="targetPoint" />
          </mxGeometry>
        </mxCell>
        <mxCell id="YP0zm3YjQFAhnFAVguXp-12" value="response" style="edgeLabel;html=1;align=center;verticalAlign=middle;resizable=0;points=[];" parent="YP0zm3YjQFAhnFAVguXp-11" vertex="1" connectable="0">
          <mxGeometry x="-0.0633" relative="1" as="geometry">
            <mxPoint y="8" as="offset" />
          </mxGeometry>
        </mxCell>
        <mxCell id="YP0zm3YjQFAhnFAVguXp-21" value="&lt;font color=&quot;#2189ff&quot;&gt;Optionnal process&lt;/font&gt;" style="text;html=1;align=center;verticalAlign=middle;resizable=0;points=[];autosize=1;strokeColor=none;fillColor=none;" parent="1" vertex="1">
          <mxGeometry x="580" y="390" width="120" height="30" as="geometry" />
        </mxCell>
        <mxCell id="YP0zm3YjQFAhnFAVguXp-22" value="" style="endArrow=classic;html=1;rounded=0;" parent="1" source="aM9ryv3xv72pqoxQDRHE-6" target="aM9ryv3xv72pqoxQDRHE-2" edge="1">
          <mxGeometry width="50" height="50" relative="1" as="geometry">
            <mxPoint x="270" y="220" as="sourcePoint" />
            <mxPoint x="130" y="270" as="targetPoint" />
            <Array as="points">
              <mxPoint x="210" y="270" />
            </Array>
          </mxGeometry>
        </mxCell>
        <mxCell id="YP0zm3YjQFAhnFAVguXp-23" value="response" style="edgeLabel;html=1;align=center;verticalAlign=middle;resizable=0;points=[];" parent="YP0zm3YjQFAhnFAVguXp-22" vertex="1" connectable="0">
          <mxGeometry x="0.0134" y="-1" relative="1" as="geometry">
            <mxPoint y="-7" as="offset" />
          </mxGeometry>
        </mxCell>
      </root>
    </mxGraphModel>
  </diagram>
  <diagram id="qBpQozXcuj7NOdu5OZBQ" name="ApiGateway">
    <mxGraphModel dx="1386" dy="1928" grid="1" gridSize="10" guides="1" tooltips="1" connect="1" arrows="1" fold="1" page="1" pageScale="1" pageWidth="827" pageHeight="1169" math="0" shadow="0">
      <root>
        <mxCell id="0" />
        <mxCell id="1" parent="0" />
        <mxCell id="mqQytJtqE_4T5mthTsqW-23" style="edgeStyle=orthogonalEdgeStyle;rounded=0;orthogonalLoop=1;jettySize=auto;html=1;exitX=1;exitY=0.5;exitDx=0;exitDy=0;entryX=0;entryY=0.5;entryDx=0;entryDy=0;" edge="1" parent="1" source="mqQytJtqE_4T5mthTsqW-2" target="mqQytJtqE_4T5mthTsqW-3">
          <mxGeometry relative="1" as="geometry" />
        </mxCell>
        <mxCell id="mqQytJtqE_4T5mthTsqW-28" style="rounded=0;orthogonalLoop=1;jettySize=auto;html=1;exitX=0.5;exitY=1;exitDx=0;exitDy=0;entryX=0.5;entryY=0;entryDx=0;entryDy=0;" edge="1" parent="1" source="mqQytJtqE_4T5mthTsqW-2" target="mqQytJtqE_4T5mthTsqW-18">
          <mxGeometry relative="1" as="geometry">
            <mxPoint x="82.5" y="-960" as="sourcePoint" />
            <mxPoint x="-20" y="-810" as="targetPoint" />
          </mxGeometry>
        </mxCell>
        <mxCell id="mqQytJtqE_4T5mthTsqW-35" style="edgeStyle=orthogonalEdgeStyle;rounded=0;orthogonalLoop=1;jettySize=auto;html=1;exitX=0.75;exitY=1;exitDx=0;exitDy=0;entryX=0.5;entryY=0;entryDx=0;entryDy=0;" edge="1" parent="1" source="mqQytJtqE_4T5mthTsqW-2" target="mqQytJtqE_4T5mthTsqW-29">
          <mxGeometry relative="1" as="geometry">
            <Array as="points">
              <mxPoint x="101" y="-900" />
              <mxPoint x="220" y="-900" />
            </Array>
          </mxGeometry>
        </mxCell>
        <mxCell id="mqQytJtqE_4T5mthTsqW-2" value="RefSocle&lt;br&gt;RouteLocator" style="rounded=0;whiteSpace=wrap;html=1;" vertex="1" parent="1">
          <mxGeometry x="37.5" y="-1020" width="85" height="60" as="geometry" />
        </mxCell>
        <mxCell id="mqQytJtqE_4T5mthTsqW-25" style="edgeStyle=orthogonalEdgeStyle;rounded=0;orthogonalLoop=1;jettySize=auto;html=1;exitX=1;exitY=0.5;exitDx=0;exitDy=0;entryX=0;entryY=0.5;entryDx=0;entryDy=0;" edge="1" parent="1" source="mqQytJtqE_4T5mthTsqW-3" target="mqQytJtqE_4T5mthTsqW-5">
          <mxGeometry relative="1" as="geometry" />
        </mxCell>
        <mxCell id="mqQytJtqE_4T5mthTsqW-3" value="RefSocle&lt;br&gt;Service" style="rounded=0;whiteSpace=wrap;html=1;" vertex="1" parent="1">
          <mxGeometry x="255" y="-1020" width="60" height="60" as="geometry" />
        </mxCell>
        <mxCell id="mqQytJtqE_4T5mthTsqW-5" value="DTO&lt;br&gt;Mapper" style="rounded=0;whiteSpace=wrap;html=1;" vertex="1" parent="1">
          <mxGeometry x="490" y="-1020" width="60" height="60" as="geometry" />
        </mxCell>
        <mxCell id="mqQytJtqE_4T5mthTsqW-21" style="edgeStyle=orthogonalEdgeStyle;rounded=0;orthogonalLoop=1;jettySize=auto;html=1;exitX=0.5;exitY=1;exitDx=0;exitDy=0;entryX=0.5;entryY=0;entryDx=0;entryDy=0;" edge="1" parent="1" source="mqQytJtqE_4T5mthTsqW-6" target="mqQytJtqE_4T5mthTsqW-2">
          <mxGeometry relative="1" as="geometry" />
        </mxCell>
        <mxCell id="mqQytJtqE_4T5mthTsqW-6" value="ApiGatewayApplication" style="rounded=0;whiteSpace=wrap;html=1;" vertex="1" parent="1">
          <mxGeometry x="10" y="-1120" width="140" height="60" as="geometry" />
        </mxCell>
        <mxCell id="mqQytJtqE_4T5mthTsqW-14" value="On déporte les règles &quot;métier&quot; dans cette classe" style="text;html=1;align=center;verticalAlign=middle;whiteSpace=wrap;rounded=0;" vertex="1" parent="1">
          <mxGeometry x="215" y="-950" width="140" height="30" as="geometry" />
        </mxCell>
        <mxCell id="mqQytJtqE_4T5mthTsqW-15" value="Permet de transformer des données en un autre formalisme" style="text;html=1;align=center;verticalAlign=middle;whiteSpace=wrap;rounded=0;" vertex="1" parent="1">
          <mxGeometry x="460" y="-950" width="120" height="60" as="geometry" />
        </mxCell>
        <mxCell id="mqQytJtqE_4T5mthTsqW-17" value="" style="endArrow=none;dashed=1;html=1;rounded=0;" edge="1" parent="1">
          <mxGeometry width="50" height="50" relative="1" as="geometry">
            <mxPoint x="30" y="-780" as="sourcePoint" />
            <mxPoint x="780" y="-780" as="targetPoint" />
          </mxGeometry>
        </mxCell>
        <mxCell id="mqQytJtqE_4T5mthTsqW-18" value="Réferentiel Socle" style="rounded=0;whiteSpace=wrap;html=1;" vertex="1" parent="1">
          <mxGeometry x="20" y="-750" width="120" height="60" as="geometry" />
        </mxCell>
        <mxCell id="mqQytJtqE_4T5mthTsqW-29" value="Paramétrage Route" style="swimlane;whiteSpace=wrap;html=1;startSize=20;" vertex="1" parent="1">
          <mxGeometry x="120" y="-880" width="200" height="80" as="geometry" />
        </mxCell>
        <mxCell id="mqQytJtqE_4T5mthTsqW-32" value="- Path" style="text;html=1;align=center;verticalAlign=middle;resizable=0;points=[];autosize=1;strokeColor=none;fillColor=none;" vertex="1" parent="mqQytJtqE_4T5mthTsqW-29">
          <mxGeometry x="2.5" y="20" width="60" height="30" as="geometry" />
        </mxCell>
        <mxCell id="mqQytJtqE_4T5mthTsqW-33" value="- Filters(rewritePath,&amp;nbsp;&lt;br&gt;modifyResponseBody)" style="text;html=1;align=left;verticalAlign=middle;resizable=0;points=[];autosize=1;strokeColor=none;fillColor=none;" vertex="1" parent="mqQytJtqE_4T5mthTsqW-29">
          <mxGeometry x="16" y="40" width="140" height="40" as="geometry" />
        </mxCell>
      </root>
    </mxGraphModel>
  </diagram>
</mxfile>
